comment,toxic
Россия,0
россия,0
Российская Федерация,0
российская федерация,0
логин и пароль,0
Бевзенко,0
Вы все говно,1
Вы все гавно,1
"Марина Аркадьевна, как всегда браво.",0
"Отличный материал, очень удачные кейсы!",0
"Спасибо большое Татьяне Леонидовне. Идеальный, исключающий всякие сомнения, анализ и вывод.",0
Ваш комментарий,0
тестверсия сайта хром,0
"онлайн, хром тест",0
"Спасибо,Антон Олегович! Хорошо прочитал",0
Юлия,0
Хотим больше семинаров Бевзенко!,0
Хотим больше семинаров Климова!,0
Бевзенко,0
"Отличный лектор! Марина Аркадьевна, благодарю.",0
полезно!!!!!!!!!!!!!!!!!!!!!!!!!!!!!!!!!,0
Автор нагло врет,1
Татьяна Леонидовна большое спасибо за лекцию -НДС при возврате товаров.Объяснили понятным русским языком.,0
"Бесподобно! По существу, потрясающе речевое оформление умозаключений автора! Харизматично.",0
очень полезный ведеосеминар,0
"Родион Борисович как всегда на высоте: коротко, ясно, вся информация и ссылки на документы даны. Остается сказать большое спасибо!!! И спасибо ВВФА г. Ярославля за таких лекторов!!!",0
"Как всегда превосходно!!! Доходчиво, грамотно и очень информационно по сути!!! Плавник Радион Борисович самый лучший преподаватель и практик по бухгалтерскому учету! Спасибо!",0
"Спасибо Елене Георгиевне! Замечательная лекция, прочитанная компетентным в данном вопросе юристом. Владимир Исаков",0
не загружается семинар по самозанятым гражданам,0
"Спасибо за хорошую, понятную лекцию! Мокеева Татьяна Павловна АО 'АК Железные дороги Якутии'",0
Здравствуйте! Договаривались о видеосеминаре на 9:00. Жду звонка... Богатырев Дмитрий,0
здравствуйте! я ольга п,0
"Истины прописные, но прослушав лекцию Ирины Александровны, стало еще более понятным.",0
Всегда приятно слушать ее! Умничка!,0
Без комментариев...,0
как правильно округлить оклад педработника?,0
"Валерий Анатольевич, большое спасибо за хорошую лекцию !!",0
после отправки сообщения ОС не удаляется текст сообщения,0
мммхуита,1
Отвратительно!,1
Коллеги реально БЕСИТ,1
а ты еще что за бородатый хуй!?,1
хуйня полная,1
гавной от нее воняет,1
все козлы,1
все негодяи,1
гондон,1
гандон,1
говно,1
гавно,1
хуенький,1
нахрен,1
бздюшка,1
уёбищное,1
ебаное,1
отъебись,1
гавнюк,1
сучонок,1
пиздить,1
Чмо,1
блядина,1
уебищное,1
ебашить,1
хуесос,1
шлюшка,1
минетчик,1
падонки,1
поебать,1
ниипаццо,1
наебать,1
проебанка,1
хуяк,1
залупить,1
уебк,1
манду,1
обосцать,1
спиздит,1
заебать,1
мразь,1
бздунья,1
ебля,1
наебнуться,1
гниды,1
залупа,1
посрать,1
охуевающий,1
блядун,1
заебываться,1
херня,1
ебки,1
пидорок,1
пердуха,1
Ублюдок,1
обосцаться,1
дрочить,1
Наглец,1
пиздячить,1
залупиться,1
бля,1
уёбок,1
педрило,1
задрота,1
заебошить,1
хуякнуть,1
наебывать,1
охуеть,1
ебанический,1
пиздеть,1
охуеньчик,1
пидрас,1
охуенно,1
лошок,1
перднуть,1
залупаться,1
сучий,1
хуйрик,1
проеб,1
говнядина,1
целка,1
ссака,1
похуистка,1
хуерик,1
подонки,1
выблядыш,1
говнецо,1
ебучий,1
припиздень,1
копать,1
мудоклюй,1
обдристаться,1
мудеть,1
засерать,1
Пошляк,1
говнюха,1
поскуда,1
заёбистое,1
подговнять,1
малафья,1
хуёвый,1
хуеплёт,1
ахуел,1
пиздунья,1
хую,1
говняк,1
хуел,1
спиздила,1
блядуны,1
говенка,1
пизду,1
хуевый,1
Кретин,1
придурок,1
похую,1
ебин,1
заёбистый,1
распиздеться,1
сыкун,1
дристать,1
пердануть,1
пездишь,1
курвятник,1
манда,1
опездал,1
хуепромышленник,1
педерас,1
заеба,1
разъебать,1
хуеныш,1
блябу,1
промудеть,1
хуесоска,1
пизденыш,1
пиздище,1
пропиздеть,1
пернуть,1
бздло,1
пиздолиз,1
мандюк,1
выпердеть,1
однохуйственно,1
ниипет,1
ебанько,1
ебут,1
сука,1
ипаться,1
хуёвенький,1
дристануть,1
уёбки,1
ебало,1
бздение,1
залуп,1
раздолбай,1
пездит,1
хуюл,1
Сволочь,1
нехуйственно,1
еблан,1
дрочена,1
дрочелло,1
сила,1
пидор,1
хуетень,1
ибанамат,1
никуя,1
херовато,1
Шваль,1
хуек,1
надристать,1
хуевина,1
ебическая,1
ебаный,1
хуерыло,1
взьебка,1
вьебен,1
говнище,1
курва,1
взъебка,1
пиздит,1
пидорасы,1
гнида,1
злоебучая,1
ебня,1
сволочь,1
шараёбиться,1
напиздело,1
пиздюля,1
охуяньчик,1
пердеж,1
хуенч,1
мокрощёлка,1
хуля,1
ебет,1
отпиздить,1
въебенн,1
Зараза,1
хитровыебанный,1
заебастая,1
сикель,1
ебаная,1
отпиздячить,1
секель,1
пидарас,1
пробзделся,1
сцука,1
блядище,1
пидоры,1
ебнуться,1
уёбища,1
сучье,1
пиздюлина,1
мандавошки,1
остопиздеть,1
ебучее,1
набздел,1
мудак,1
распиздяйство,1
срака,1
ебуч,1
ебский,1
Дурак,1
пиздобол,1
насрать,1
переёбок,1
пиздишь,1
нехрен,1
засрун,1
сцуль,1
гавнючка,1
объебос,1
дрист,1
ебанат,1
пизденка,1
шлюха,1
мудоеб,1
хуе,1
говнолинк,1
мудня,1
блядки,1
сестроеб,1
говнять,1
ебануть,1
серька,1
мудила,1
минетчица,1
распиздай,1
бзднуть,1
взьебывать,1
Подонок,1
писька,1
въебусь,1
заебистые,1
задристать,1
мудозвон,1
хуево,1
сучка,1
хуйло,1
распроеть,1
вафлёр,1
говнюк,1
сцуконах,1
Нехуй,1
педик,1
ёбн,1
доебываться,1
выебен,1
обьебос,1
спиздили,1
херовый,1
сцышь,1
пиздорванец,1
Плохую,1
хуя,1
бздюшко,1
пиздиться,1
мудаг,1
сраный,1
пердун,1
мандавошек,1
сговнять,1
выссаться,1
пизды,1
хуею,1
въебывать,1
выблядок,1
набздеть,1
обосранец,1
ебанныйврот,1
напиздели,1
ебальник,1
Негодяй,1
дрочка,1
ебская,1
похеру,1
говноед,1
еблыст,1
срать,1
похрен,1
чмошник,1
бздеть,1
выебон,1
охуительно,1
ебёна,1
пиздун,1
ахуеть,1
педрилы,1
минет,1
похуй,1
блядь,1
ебаться,1
хуё,1
очкун,1
муде,1
обосрать,1
дристун,1
похрену,1
поебень,1
дрочила,1
дрочилка,1
изговняться,1
еблище,1
педрила,1
разхуячить,1
долбоёб,1
ебик,1
пиздища,1
бляди,1
дрисня,1
въеб,1
мудистый,1
пиздарваньчик,1
припизднутый,1
пиздануть,1
Шаромыжник,1
млять,1
шалавой,1
ебошить,1
надрочить,1
мандень,1
захуячить,1
засеря,1
елдак,1
говназия,1
ебуче,1
похерил,1
ебат,1
пиздоболы,1
мандеть,1
похерила,1
зае,1
ебануться,1
уёбище,1
пиздоватая,1
пидары,1
спиздел,1
заябестая,1
спиздил,1
пиздюга,1
лярва,1
Какдвапальцаобоссать,1
высраться,1
хуйня,1
заё,1
заебистый,1
бздицы,1
срун,1
хуёк,1
заебаться,1
пиздануться,1
сцыха,1
потаскуха,1
пездят,1
ебырь,1
бздюха,1
обьебать,1
ипаццо,1
сраку,1
мудель,1
пиздуй,1
Лох,1
наебнуть,1
уебать,1
дрочун,1
Шантрапа,1
вафел,1
бздех,1
остоебенить,1
ёбат,1
писюшка,1
приебаться,1
охуячивать,1
сволота,1
блядюга,1
уебки,1
усраться,1
суки,1
Шельма,1
урюк,1
пидорка,1
чмырь,1
писбшки,1
распиздяй,1
похерили,1
паскуда,1
лошар,1
наебет,1
наговнять,1
ебанный,1
пездень,1
пердунина,1
писюн,1
заеб,1
мудил,1
страхопиздище,1
конча,1
пиздатое,1
чмо,1
соси,1
пиздонутые,1
злоеб,1
пердение,1
пердеть,1
проебать,1
засирать,1
охуячить,1
пердь,1
блябуду,1
хуй,1
заебистое,1
трахаёб,1
охуевательский,1
бздит,1
изговнять,1
пердунья,1
суходрочка,1
трахатель,1
ля,1
лошары,1
подъебнуться,1
мандавошка,1
сирать,1
пиздобратия,1
разъеба,1
ебатория,1
пиздострадатель,1
пиздорванка,1
дристуха,1
нихуя,1
припиздюлина,1
серун,1
нахер,1
хуем,1
заёбистые,1
долбоящер,1
ебла,1
ниибацо,1
обсирать,1
пердунец,1
хуета,1
бздун,1
блядунья,1
хитрожопый,1
напиздел,1
проблядь,1
хуячить,1
сранье,1
напиздили,1
ебанамать,1
сирывать,1
уебище,1
невъебенно,1
нехира,1
выебать,1
ебать,1
заебастый,1
хуеплет,1
пиздатый,1
мандища,1
выебнулся,1
говенный,1
спиздить,1
говночист,1
шалава,1
ссышь,1
замудохаться,1
ублюдок,1
жопу,1
долбоеб,1
Мерзавец,1
пиздёныш,1
ёбаная,1
ебёт,1
заебись,1
педрик,1
падонок,1
поёбываает,1
лошара,1
ебись,1
бздецы,1
хуякать,1
пёрднуть,1
пизда,1
отмудохать,1
пиздоватый,1
шлюхой,1
ёбаную,1
хуи,1
опизденивающе,1
пиздато,1
ибонех,1
говняный,1
изъебнуться,1
заёб,1
еб,1
пездо,1
пердильник,1
пидар,1
пиздят,1
спиздеть,1
ебан,1
ушлепок,1
ебтвоюмать,1
похер,1
Подлец,1
елдачить,1
съебаться,1
отпороть,1
гамно,1
хуяра,1
Мымра,1
охуел,1
нихера,1
ипать,1
стерва,1
потаскушка,1
пропизделся,1
муди,1
сцуки,1
настопиздить,1
блять,1
сцание,1
подонок,1
выеб,1
Болван,1
мандой,1
мандей,1
писькострадатель,1
хуйком,1
говешка,1
сучара,1
хуище,1
блядство,1
ебливый,1
пропиздячить,1
сцать,1
уй,1
разъеб,1
педрилло,1
ебец,1
ебло,1
жопа,1
мокрощелка,1
промандеть,1
въебался,1
ёб,1
похуист,1
подъебнуть,1
невротебучий,1
ебарь,1
заебал,1
пидарасы,1
хамло,1
уебок,1
лох,1
трахаеб,1
ебнуть,1
засерун,1
елда,1
ниипацца,1
пиздюк,1
задрачивать,1
блядовать,1
заебанец,1
охуевать,1
ебущ,1
пиздец,1
злоебучее,1
хер,1
херовина,1
сучко,1
заебашить,1
нахуй,1
дрочистый,1
ебучим,1
трахае,1
пёрнуть,1
охуительный,1
нахуйник,1
выебываться,1
заговнять,1
падла,1
злоебучий,1
ебал,1
запиздячить,1
хуясе,1
Идиот,1
разъебай,1
ебун,1
хуевато,1
